…
Plots

data_gesamt %>%
  select(x) %>%
  filter(!duplicated(x))

## # A tibble: 30 × 1
##    x                      
##    <chr>                  
##  1 siebentageinzidenz     
##  2 fallzahl               
##  3 Alle_Altersmedian      
##  4 Hosp_Altersmedian      
##  5 ITS_Altersmedian       
##  6 Verstorben_Altersmedian
##  7 Alle_MW_Alter          
##  8 Hosp_MW_Alter          
##  9 ITS_MW_Alter           
## 10 Verst_MW_Alter         
## # … with 20 more rows
…
