Another Game of Thrones network analysis - this time with tidygraph and ggraph
…
Because there are so many characters in the books, many of them minor, I am subsetting the data to the 100 characters with the most interactions across all books. The edges are undirected, therefore there are no redundant Source-Target combinations; because of this, I gathered Source and Target data before summing up the weights.

main_ch <- cooc_all_edges %>%
  select(-Type) %>%
  gather(x, name, Source:Target) %>%
  group_by(name) %>%
  summarise(sum_weight = sum(weight)) %>%
  ungroup()

main_ch_l <- main_ch %>%
  arrange(desc(sum_weight)) %>%
  top_n(100, sum_weight)
main_ch_l

## # A tibble: 100 x 2
##    name               sum_weight
##    <chr>                   <int>
##  1 Tyrion-Lannister         2873
##  2 Jon-Snow                 2757
##  3 Cersei-Lannister         2232
##  4 Joffrey-Baratheon        1762
##  5 Eddard-Stark             1649
##  6 Daenerys-Targaryen       1608
##  7 Jaime-Lannister          1569
##  8 Sansa-Stark              1547
##  9 Bran-Stark               1508
## 10 Robert-Baratheon         1488
## # ... with 90 more rows
…
We can also convert our active node or edge table back to a tibble:

cooc_all_f_graph %>%
  activate(nodes) %>% # %N>%
  as.tibble()

## # A tibble: 100 x 7
##    name         n_rank_trv neighbors group center dist_to_center keyplayer
##    <chr>             <int>     <dbl> <int> <lgl>           <dbl> <lgl>    
##  1 Aemon-Targa…          7       13.     2 FALSE              1. FALSE    
##  2 Aeron-Greyj…         85        5.     5 FALSE              2. FALSE    
##  3 Aerys-II-Ta…         59       12.     1 FALSE              1. FALSE    
##  4 Alliser-Tho…          6       13.     2 FALSE              1. FALSE    
##  5 Arianne-Mar…         95        4.     7 FALSE              2. FALSE    
##  6 Arya-Stark           34       37.     1 FALSE              1. FALSE    
##  7 Asha-Greyjoy         87        7.     5 FALSE              1. FALSE    
##  8 Balon-Greyj…         86       11.     5 FALSE              2. FALSE    
##  9 Barristan-S…         91       23.     3 FALSE              1. FALSE    
## 10 Belwas               42        6.     3 FALSE              2. FALSE    
## # ... with 90 more rows

cooc_all_f_graph %>%
  activate(edges) %>% # %E>%
  as.tibble()

## # A tibble: 798 x 6
##     from    to Type          id weight centrality_e
##    <int> <int> <chr>      <int>  <int>        <dbl>
##  1     1     4 Undirected    43      7         1.00
##  2     1    13 Undirected    44      4        30.2 
##  3     1    28 Undirected    52      3        42.1 
##  4     1    32 Undirected    53     20         0.  
##  5     1    34 Undirected    54      5        35.2 
##  6     1    41 Undirected    56      5        18.9 
##  7     1    42 Undirected    57     25         0.  
##  8     1    48 Undirected    58    110         0.  
##  9     1    58 Undirected    60      5        24.5 
## 10     1    71 Undirected    62      5        17.0 
## # ... with 788 more rows
…
